../assembled/EN/A4/m162-m99-m80-m78-m2-m96-m130-m126.svg
../assembled/EN/A4/e1-e7-e6-e5-e3-c64-c64b-ibm1.svg
../assembled/EN/A4/t9-t8-t32-t34-t3-t16-t37-t46.svg
../assembled/EN/A4/w1-ja2-ja7-ra1-ma10-ja6-g3-ra2.svg
../assembled/EN/A4/a3-a6-a26-a14-a29-a27-a20-a16.svg
../assembled/EN/A4/t35-t5-t36-t11-t15-t47-t43-t23.svg
../assembled/EN/A4/m139-m55-m154-m102-m148-m152-m87-m73.svg
../assembled/EN/A4/mos1-mos2-mos0-mos7-mos4-mos6-sk1-eye1.svg
../assembled/EN/A4/m28-m65-m7-m110-m113-m156-m51-m176.svg
../assembled/EN/A4/r1-cpu2-cpu1-src4-src1-src3-src2-n2.svg
../assembled/EN/A4/mp2-p6-bo1-smoke1-s2-s4-s1-s3.svg
../assembled/EN/A4/m40-m158-m172-dp4-dp1-dp2-dp3-q1.svg
../assembled/EN/A4/m89-m35-m160-m114-m94-m31-m133-m115b.svg
../assembled/EN/A4/m41b-m117-m150-m15-mod2-m171-m11-m38-m49.svg
../assembled/EN/A4/co9-co6-co2-co1-co12-co10-e4-e2.svg
../assembled/EN/A4/a23-a11-a12-a16b-a1-a27b-a5-a28.svg
../assembled/EN/A4/t20-t41-t25-t22-t4-t42-t7-t33.svg
../assembled/EN/A4/m177-m54-m18-m78b-m42-m75-m168-m159.svg
../assembled/EN/A4/ma4-ra5-ma11-g2-ma3-dt2-dt4-dt1.svg
../assembled/EN/A4/t21-t1-t40-t31-t24-t39-t42b-t48.svg
../assembled/EN/A4/m146-m153-m81-m92-m175-m29-m10-m50.svg
../assembled/EN/A4/m1-m103-m81c-m108-m112-m104-m70-m155.svg
../assembled/EN/A4/m62-m122-m98-m76-m167-m30-m25-m58.svg
../assembled/EN/A4/m163-m77-m52-m3-m68-m66-m116-m4.svg
../assembled/EN/A4/m83-m91-m47-m119-m169-m164-m74-m173.svg
../assembled/EN/A4/at1-ma2-ha1-scg5-g4-ma8-ma5-scg6.svg
../assembled/EN/A4/t6-t12b-gp1-dc2-dc3-dc10-dc9-dc8.svg
../assembled/EN/A4/m115-m85-m84-m16-m105-m138-m136-m143.svg
../assembled/EN/A4/m37-m45-m134-m60-m157-m121-m170-m137.svg
../assembled/EN/A4/m128-m82-m107-m61-m5-m9-m21-m59.svg
../assembled/EN/A4/ma6-ja3-scg1-ma1-ma7-ja4-ra4-scg4.svg
../assembled/EN/A4/ja5-ja1-ma9-g1-scg3-ra3-scg2-w2.svg
../assembled/EN/A4/t38-t18-t26-t49-t13-t2-t29-t45.svg
../assembled/EN/A4/m44-m123-m13-m20-m53-m147-m6-m106.svg
../assembled/EN/A4/bio1-endo1-b4-b5-b1-b3-b2-b5b.svg
../assembled/EN/A4/a13-a10-a17-a15-a2-a8-a0-a19.svg
../assembled/EN/A4/philo1-philo2-c1-c2-m131-m131-m131.svg
../assembled/EN/A4/m120-m24-m88-m8-m21b-m95-m19-m145.svg
../assembled/EN/A4/m17-m72-m144-m142-m48-m132-m118-m86.svg
../assembled/EN/A4/n1-n3-co11-co3-co4-co8-co5-co7.svg
../assembled/EN/A4/m135-m79-m101-m166-m124-m90-m67-m23.svg
../assembled/EN/A4/m141-m15-m15-mod-m14-m69-m100-m125-m149.svg
../assembled/EN/A4/a21-a18-a7-a27c-a25-a9-m57-m12.svg
../assembled/EN/A4/t19-t10-t27-t30-t28-t44-t14-t12.svg
../assembled/EN/A4/m93-m71-m46-m131-m174-m32-m151-m63.svg
../assembled/EN/A4/m64-m27-m111-m41-m97-m109-m129-m26.svg
../assembled/EN/A4/m140-m127-m161-m22-m43-m56-m165-m88b.svg
../assembled/EN/A4/stsct2-stsct3-stsct1-env2-env1-env3-mos3-mos5.svg
../assembled/EN/A4/p7-p8-mp1-p1-p4-p3-p5-p2.svg
